HCOPY  000000001033
DBUFFER000033BUFEND001033LENGTH00002D
RRDREC WRREC 
T0000001D1720274B1000000320232900003320074B1000003F20000320160F2016
T00001D0D0100030F200A4B1000003E2000
T00003003454F46
M00000405+RDREC
M00001105+WRREC
M00002405+WRREC
E000000

HRDREC 00000000002B
RBUFFERLENGTHBUFEND
T0000001DB410B400B44077201FE3201B332FFADB2015A00433200957900000B850
T00001D0E3B2FE9131000004F0000F1000000
M00001805+BUFFER
M00002105+LENGTH
M00002806+BUFEND
M00002806-BUFFER
E

HWRREC 00000000001C
RLENGTHBUFFER
T0000001CB41077100000E32012332FFA53900000DF2008B8503B2FEE4F000005
M00000305+LENGTH
M00000D05+BUFFER
E

